    1.0000         0   
    3.0000    0.0080   
    5.0000    0.0222   
    7.0000    0.0437   
    9.0000    0.0530   
   10.5000    0.0772   
   12.0000    0.1910   
   15.0000    0.2388   
   17.0000    0.2791   
   19.0000    0.3343   
   21.0000    0.3871   
   23.0000    0.4371   
   24.5000    0.4749   
   55.0000    1.0000   